917075
904434
884498
877091
865604
864745
829632
848982
824739
828140
793506
801642
795851
757931
482968
384676
412744
472816
506960
838137
816555
764373
765888
757873
774455
771690
748102
753570
734140
754020
737611
726299
682394
681518
643870
634344
621453
615582
615599
561281
522261
575261
615780
629878
645899
843904
870472
870836
872661
862310
826722
822204
804696
810754
805917
806916
816467
812215
829249
819819
838633
832353
868876
877804
865688
863527
840568
835796
842245
850381
881284
877506
857186
801218
745065
720395
744744
737062
757354
800376
805483
797223
748525
759939
768431
778468
767828
771268
765473
762407
759056
743658
711610
710993
729609
734338
726768
738080
744791
774782
770945
761630
761464
767816
774355
796896
785985
796044
793420
802224
792996
790290
781621
781167
760421
744697
730242
719737
714000

